{
  "modules": [
    {
      "number": 100,
      "title": "はじめに",
      "releaseDate": "2023-03-13",
      "updatedDate": "2023-03-13",
      "slts": [
        {
          "id": "100.1",
          "slt": "私は Cardano 財布をプリプロダクション・テストネットにつなげることができます"
        },
        {
          "id": "100.2",
          "slt": "プリプロダクションテストネットで無料の「tAda」を入手できます"
        },
        {
          "id": "100.3",
          "slt": "鍵を安全に保管する方法を知っています"
        },
        {
          "id": "100.4",
          "slt": "トークン「PPBLコントリビューター」を鋳造することができます。"
        }
      ],
      "lessons": [
        {
          "slug": "slts",
          "name": "モジュール100の概要＋SLT",
          "video": ""
        },
        {
          "slug": "1001",
          "name": "レッスン1: ウォレットをPreprodに接続する",
          "video": ""
        },
        {
          "slug": "1002",
          "name": "レッスン2：Preprodの蛇口からtAdaを取得する",
          "video": ""
        },
        {
          "slug": "1003",
          "name": "レッスン3: 秘密鍵の保管。",
          "video": ""
        },
        {
          "slug": "1004",
          "name": "レッスン4：PPBL 2023 Tokenを入手する。",
          "video": ""
        }
      ]
    },
    {
      "number": 101,
      "title": "最初のスマートコントラクトを書く",
      "releaseDate": "2023-03-20",
      "updatedDate": "2023-03-20",
      "slts": [
        {
          "id": "101.1",
          "slt": "Plutus ValidatorをUntyped Plutus Core（UPLC）にコンパイルすることができる。"
        },
        {
          "id": "101.2",
          "slt": "カルダノ上の分散型アプリケーションにおいてUPLCが果たす役割を理解しました。"
        },
        {
          "id": "101.3",
          "slt": "Demeter.runを使って.plutusスクリプトをコンパイルすることができます。"
        },
        {
          "id": "101.4",
          "slt": "nix shellを使ってローカルにPlutusの開発環境を構築し、それを使って.plutusのスクリプトをコンパイルすることができるのです。"
        },
        {
          "id": "101.5",
          "slt": "Aikenで「Always Succeeds」バリデータースクリプトを書くことができる。"
        }
      ],
      "lessons": [
        {
          "slug": "slts",
          "name": "Student Learning Targets",
          "video": ""
        },
        {
          "slug": "1001",
          "name": "レッスン1",
          "video": ""
        },
        {
          "slug": "1002",
          "name": "レッスン2",
          "video": ""
        },
        {
          "slug": "1003",
          "name": "レッスン3",
          "video": ""
        },
        {
          "slug": "1004",
          "name": "レッスン4",
          "video": ""
        },
        {
          "slug": "example",
          "name": "MDXの例",
          "video": ""
        }
      ]
    },
    {
      "number": 102,
      "title": "最初のトランザクションを構築する",
      "releaseDate": "2023-03-27",
      "updatedDate": "2023-03-27",
      "slts": [
        {
          "id": "102.1",
          "slt": "cardano-cliを使ってBlockchainに問い合わせることができますね。"
        },
        {
          "id": "102.2",
          "slt": "cardano-cliを使ってウォレットを作成することができますね。"
        },
        {
          "id": "102.3",
          "slt": "cardano-cliを使って簡単なトランザクションを構築することができますね。"
        },
        {
          "id": "102.4",
          "slt": "cardano-cliを使って契約アドレスに資金をロックすることができますね。"
        },
        {
          "id": "102.5",
          "slt": "契約アドレスからcardano-cliを使って資金をロック解除することができる"
        },
        {
          "id": "102.6",
          "slt": "Bash Scriptsを使って再利用可能なトランザクションを構築することができる"
        }
      ],
      "lessons": [
        {
          "slug": "slts",
          "name": "Student Learning Targets",
          "video": ""
        },
        {
          "slug": "1001",
          "name": "レッスン1",
          "video": ""
        },
        {
          "slug": "1002",
          "name": "レッスン2",
          "video": ""
        },
        {
          "slug": "1003",
          "name": "レッスン3",
          "video": ""
        },
        {
          "slug": "1004",
          "name": "レッスン4",
          "video": ""
        },
        {
          "slug": "1005",
          "name": "レッスン5",
          "video": ""
        },
        {
          "slug": "1006",
          "name": "レッスン6",
          "video": ""
        }
      ]
    },
    {
      "number": 103,
      "title": "このコースで学べること",
      "releaseDate": "2023-03-27",
      "updatedDate": "2023-03-27",
      "slts": [
        {
          "id": "103.1",
          "slt": "gitを使ってオープンソースプロジェクトに貢献できる。"
        },
        {
          "id": "103.2",
          "slt": "既存のプロジェクトのコードを再利用できる"
        },
        {
          "id": "103.3",
          "slt": "Cardano Stack Exchangeで質問することができる。"
        }
      ],
      "lessons": [
        {
          "slug": "slts",
          "name": "Student Learning Targets",
          "video": ""
        },
        {
          "slug": "1001",
          "name": "レッスン1",
          "video": ""
        },
        {
          "slug": "1002",
          "name": "レッスン2",
          "video": ""
        },
        {
          "slug": "1003",
          "name": "レッスン3",
          "video": ""
        }
      ]
    },
    {
      "number": 201,
      "title": "Front End Dappのテンプレートを構築する",
      "releaseDate": "2023-04-03",
      "updatedDate": "2023-04-03",
      "slts": [
        {
          "id": "201.1",
          "slt": "ローカル端末でNext JSのプロジェクトを実行することができる。"
        },
        {
          "id": "201.2",
          "slt": "Meshの様々なAPIを使って、EternlやNamiのようなBrowser-Walletと対話することができます。"
        },
        {
          "id": "201.3",
          "slt": "ユーザーがCardanoトークンを保持している場合に、異なるレンダリングを行うWeb Appを作成することができます"
        },
        {
          "id": "201.4",
          "slt": "GraphQLとKoiosでBlockchainに問い合わせることができる"
        },
        {
          "id": "201.5",
          "slt": "gitを使って機能ブランチを作成し、マージリクエストを送信することができます。"
        }
      ],
      "lessons": [
        {
          "slug": "slts",
          "name": "Student Learning Targets",
          "video": ""
        },
        {
          "slug": "2001",
          "name": "レッスン1",
          "video": ""
        },
        {
          "slug": "2002",
          "name": "レッスン2",
          "video": ""
        },
        {
          "slug": "2003",
          "name": "レッスン3",
          "video": ""
        },
        {
          "slug": "2004",
          "name": "レッスン4",
          "video": ""
        },
        {
          "slug": "2005",
          "name": "レッスン5",
          "video": ""
        }
      ]
    },
    {
      "number": 202,
      "title": "トークンをMintする3つの方法。",
      "releaseDate": "2023-04-10",
      "updatedDate": "2023-04-10",
      "slts": [
        {
          "id": "202.1",
          "slt": "Mesh APIsを使ってCardanoネイティブアセットをMintできる。"
        },
        {
          "id": "202.2",
          "slt": "私は、Cardano-cliを使用して、ネイティブスクリプトを使用して、ネイティブアセットをMintすることができます。"
        },
        {
          "id": "202.3",
          "slt": "Plutus Mintingスクリプトを使用してネイティブアセットをMintできる。"
        }
      ],
      "lessons": [
        {
          "slug": "slts",
          "name": "Student Learning Targets",
          "video": ""
        },
        {
          "slug": "2001",
          "name": "レッスン1",
          "video": ""
        },
        {
          "slug": "2002",
          "name": "レッスン2",
          "video": ""
        },
        {
          "slug": "2003",
          "name": "レッスン3",
          "video": ""
        }
      ]
    },
    {
      "number": 203,
      "title": "ミントNFTの3つの方法",
      "releaseDate": "2023-04-17",
      "updatedDate": "2023-04-17",
      "slts": [
        {
          "id": "203.1",
          "slt": "CardanoのトランザクションにMetadataを追加することができる。"
        },
        {
          "id": "203.2",
          "slt": "CIP-25の規格に準拠したCardano NFTを作ることができるんだ。"
        },
        {
          "id": "203.3",
          "slt": "Cardano 改善案について詳しく知ることができる場所を知っている。"
        },
        {
          "id": "203.4",
          "slt": "この開発エコシステムに新しい規格で貢献できる。"
        }
      ],
      "lessons": [
        {
          "slug": "slts",
          "name": "Student Learning Targets",
          "video": ""
        },
        {
          "slug": "2001",
          "name": "レッスン1",
          "video": ""
        },
        {
          "slug": "2002",
          "name": "レッスン2",
          "video": ""
        },
        {
          "slug": "2003",
          "name": "レッスン3",
          "video": ""
        },
        {
          "slug": "2004",
          "name": "レッスン4",
          "video": ""
        }
      ]
    },
    {
      "number": 204,
      "title": "PPBL Faucet Project",
      "releaseDate": "2023-04-24",
      "updatedDate": "2023-04-24",
      "slts": [
        {
          "id": "204.1",
          "slt": "PlutusスクリプトのInstanceにカスタムパラメータを付けてデプロイすることができます。"
        },
        {
          "id": "204.2",
          "slt": "Headlessや分散型アプリケーションの構築に貢献できる。"
        }
      ],
      "lessons": [
        {
          "slug": "slts",
          "name": "Student Learning Targets",
          "video": ""
        },
        {
          "slug": "2001",
          "name": "レッスン1",
          "video": ""
        },
        {
          "slug": "2002",
          "name": "レッスン2",
          "video": ""
        }
      ]
    },
    {
      "number": 301,
      "title": "Plutusバリデーターの書き方と使い方",
      "releaseDate": "2023-05-01",
      "updatedDate": "2023-05-01",
      "slts": [
        {
          "id": "301.1",
          "slt": "バリデータPlutus Spendingを書ける。"
        },
        {
          "id": "301.2",
          "slt": "私はHaskellを十分に知っているので、最も一般的なバリデータのデザインパターンをいくつか理解することができます。"
        },
        {
          "id": "301.3",
          "slt": "PlutusのバリデータでDatumがどのように使われているかは理解できた。"
        },
        {
          "id": "301.4",
          "slt": "PlutusのバリデータでRedeemerがどのように使われているのかがよくわかりました。"
        }
      ],
      "lessons": [
        {
          "slug": "slts",
          "name": "Student Learning Targets",
          "video": ""
        },
        {
          "slug": "3001",
          "name": "レッスン1",
          "video": ""
        },
        {
          "slug": "3002",
          "name": "レッスン2",
          "video": ""
        },
        {
          "slug": "3003",
          "name": "レッスン3",
          "video": ""
        },
        {
          "slug": "3004",
          "name": "レッスン4",
          "video": ""
        }
      ]
    },
    {
      "number": 302,
      "title": "On-Chain エッセンシャルズ。Plutus",
      "releaseDate": "2023-05-08",
      "updatedDate": "2023-05-08",
      "slts": [
        {
          "id": "302.1",
          "slt": "自分でPlutusの契約を企画・実行できる"
        },
        {
          "id": "302.2",
          "slt": "Plutusプロジェクトの作成、更新、保守ができる。"
        },
        {
          "id": "302.3",
          "slt": "datum、redeemer、カスタムロジックを効果的に使うことができる。"
        },
        {
          "id": "302.4",
          "slt": "DatumやRedeemerをJSONファイルに変換することができます。"
        },
        {
          "id": "302.5",
          "slt": "Plutus（POSIXTime）とLedger（Slot Number）で時間がどう動くかは知っている。"
        },
        {
          "id": "302.6",
          "slt": "そのサイズ、メモリ、CPUの実行コストを見ることで、Plutusバリデーターのパフォーマンスを分析することができるんだ。"
        },
        {
          "id": "302.7",
          "slt": "Plutusのリファレンススクリプトをデプロイすることができる。"
        },
        {
          "id": "302.8",
          "slt": "私のスマートコントラクトと私のプロジェクトに、Datum、Redeemer、Contract Parametersを確保することができます。"
        }
      ],
      "lessons": [
        {
          "slug": "slts",
          "name": "Student Learning Targets",
          "video": ""
        },
        {
          "slug": "3001",
          "name": "レッスン1",
          "video": ""
        },
        {
          "slug": "3002",
          "name": "レッスン2",
          "video": ""
        },
        {
          "slug": "3003",
          "name": "レッスン3",
          "video": ""
        },
        {
          "slug": "3004",
          "name": "レッスン4",
          "video": ""
        },
        {
          "slug": "3005",
          "name": "レッスン5",
          "video": ""
        }
      ]
    },
    {
      "number": 303,
      "title": "On-Chain エッセンシャルズ。Aiken",
      "releaseDate": "2023-05-08",
      "updatedDate": "2023-05-08",
      "slts": [
        {
          "id": "303.1",
          "slt": "Aikenを使ってPlutusのスクリプトが書ける。"
        },
        {
          "id": "303.2",
          "slt": "PlutusのビジネスロジックをAikenで実装できるんです。"
        }
      ],
      "lessons": [
        {
          "slug": "slts",
          "name": "Student Learning Targets",
          "video": ""
        },
        {
          "slug": "3001",
          "name": "レッスン1",
          "video": ""
        },
        {
          "slug": "3002",
          "name": "レッスン2",
          "video": ""
        }
      ]
    },
    {
      "number": 304,
      "title": "On-Chain エッセンシャルズ。 トランザクション、ユーザーインターフェース（UI）、クエリ。",
      "releaseDate": "2023-05-08",
      "updatedDate": "2023-05-08",
      "slts": [
        {
          "id": "304.1",
          "slt": "KoiosとGraphQLを使えば、過去のトランザクションからProgrammaticなクエリーを作ることができます。"
        },
        {
          "id": "304.2",
          "slt": "私は、ユーザーがブロックチェーンと対話することを可能にするユーザーインターフェース（UI）を作成することができます：（ある対話のために）適切な取引を形成することによって。"
        },
        {
          "id": "304.3",
          "slt": "Kupoを使ってon-chainデータのindexを作ることができるんだ。"
        }
      ],
      "lessons": [
        {
          "slug": "slts",
          "name": "Student Learning Targets",
          "video": ""
        },
        {
          "slug": "3001",
          "name": "レッスン1",
          "video": ""
        },
        {
          "slug": "3002",
          "name": "レッスン2",
          "video": ""
        },
        {
          "slug": "3003",
          "name": "レッスン3",
          "video": ""
        }
      ]
    },
    {
      "number": 305,
      "title": "テストと最適化入門",
      "releaseDate": "2023-05-15",
      "updatedDate": "2023-05-15",
      "slts": [
        {
          "id": "305.1",
          "slt": "shell、nix、cabalを使ってテストを実行することができます。"
        },
        {
          "id": "305.2",
          "slt": "QuickCheckを使うと、プロパティを表現できるんです。"
        },
        {
          "id": "305.3",
          "slt": "私は、CIがプロジェクトチームにどのような価値をもたらすかを説明することができます。"
        },
        {
          "id": "305.4",
          "slt": "検証・監査の結果を説明できる。"
        },
        {
          "id": "305.5",
          "slt": "Aikenで書かれたバリデータスクリプトをテストすることができる。"
        }
      ],
      "lessons": [
        {
          "slug": "slts",
          "name": "Student Learning Targets",
          "video": ""
        },
        {
          "slug": "3001",
          "name": "レッスン1",
          "video": ""
        },
        {
          "slug": "3002",
          "name": "レッスン2",
          "video": ""
        },
        {
          "slug": "3003",
          "name": "レッスン3",
          "video": ""
        },
        {
          "slug": "3004",
          "name": "レッスン4",
          "video": ""
        },
        {
          "slug": "3005",
          "name": "レッスン5",
          "video": ""
        }
      ]
    },
    {
      "number": 401,
      "title": "Gimbal Project TreasuryとEscrowの紹介",
      "releaseDate": "2023-05-15",
      "updatedDate": "2023-05-15",
      "slts": [],
      "lessons": [
        {
          "slug": "slts",
          "name": "Student Learning Targets",
          "video": ""
        },
        {
          "slug": "4001",
          "name": "レッスン1",
          "video": ""
        }
      ]
    }
  ]
}